Code Domaine,Domaine,Code zone,Zone,Code Élément,Élément,Code Produit,Produit,Code année,Année,Unité,Valeur,Symbole,Description du Symbole,Note
"OA","Séries temporelles annuelles","2","Afghanistan","511","Population totale","3010","Population-Estimations","2009","2009","1000 personnes","28394.813","X","Sources internationales sûres",""
"OA","Séries temporelles annuelles","202","Afrique du Sud","511","Population totale","3010","Population-Estimations","2009","2009","1000 personnes","50477.011","X","Sources internationales sûres",""
"OA","Séries temporelles annuelles","3","Albanie","511","Population totale","3010","Population-Estimations","2009","2009","1000 personnes","2973.048","X","Sources internationales sûres",""
"OA","Séries temporelles annuelles","4","Algérie","511","Population totale","3010","Population-Estimations","2009","2009","1000 personnes","35333.881","X","Sources internationales sûres",""
"OA","Séries temporelles annuelles","79","Allemagne","511","Population totale","3010","Population-Estimations","2009","2009","1000 personnes","80899.961","X","Sources internationales sûres",""
"OA","Séries temporelles annuelles","6","Andorre","511","Population totale","3010","Population-Estimations","2009","2009","1000 personnes","84.463","X","Sources internationales sûres",""
"OA","Séries temporelles annuelles","7","Angola","511","Population totale","3010","Population-Estimations","2009","2009","1000 personnes","22514.281","X","Sources internationales sûres",""
"OA","Séries temporelles annuelles","258","Anguilla","511","Population totale","3010","Population-Estimations","2009","2009","1000 personnes","13.258","X","Sources internationales sûres",""
"OA","Séries temporelles annuelles","8","Antigua-et-Barbuda","511","Population totale","3010","Population-Estimations","2009","2009","1000 personnes","86.746","X","Sources internationales sûres",""
"OA","Séries temporelles annuelles","151","Antilles néerlandaises (ex)","511","Population totale","3010","Population-Estimations","2009","2009","1000 personnes","245.157","A","Agrégat, peut inclure des données officielles, semi-officielles, estimées ou calculées",""
"OA","Séries temporelles annuelles","194","Arabie saoudite","511","Population totale","3010","Population-Estimations","2009","2009","1000 personnes","26630.303","X","Sources internationales sûres",""
"OA","Séries temporelles annuelles","9","Argentine","511","Population totale","3010","Population-Estimations","2009","2009","1000 personnes","40482.788","X","Sources internationales sûres",""
"OA","Séries temporelles annuelles","1","Arménie","511","Population totale","3010","Population-Estimations","2009","2009","1000 personnes","2888.092","X","Sources internationales sûres",""
"OA","Séries temporelles annuelles","22","Aruba","511","Population totale","3010","Population-Estimations","2009","2009","1000 personnes","101.455","X","Sources internationales sûres",""
"OA","Séries temporelles annuelles","10","Australie","511","Population totale","3010","Population-Estimations","2009","2009","1000 personnes","21750.851","X","Sources internationales sûres",""
"OA","Séries temporelles annuelles","11","Autriche","511","Population totale","3010","Population-Estimations","2009","2009","1000 personnes","8372.663","X","Sources internationales sûres",""
"OA","Séries temporelles annuelles","52","Azerbaïdjan","511","Population totale","3010","Population-Estimations","2009","2009","1000 personnes","8924.388","X","Sources internationales sûres",""
"OA","Séries temporelles annuelles","12","Bahamas","511","Population totale","3010","Population-Estimations","2009","2009","1000 personnes","349.604","X","Sources internationales sûres",""
"OA","Séries temporelles annuelles","13","Bahreïn","511","Population totale","3010","Population-Estimations","2009","2009","1000 personnes","1185.076","X","Sources internationales sûres",""
"OA","Séries temporelles annuelles","16","Bangladesh","511","Population totale","3010","Population-Estimations","2009","2009","1000 personnes","145924.797","X","Sources internationales sûres",""
"OA","Séries temporelles annuelles","14","Barbade","511","Population totale","3010","Population-Estimations","2009","2009","1000 personnes","281.104","X","Sources internationales sûres",""
"OA","Séries temporelles annuelles","57","Bélarus","511","Population totale","3010","Population-Estimations","2009","2009","1000 personnes","9433.152","X","Sources internationales sûres",""
"OA","Séries temporelles annuelles","255","Belgique","511","Population totale","3010","Population-Estimations","2009","2009","1000 personnes","10859.94","X","Sources internationales sûres",""
"OA","Séries temporelles annuelles","23","Belize","511","Population totale","3010","Population-Estimations","2009","2009","1000 personnes","314.655","X","Sources internationales sûres",""
"OA","Séries temporelles annuelles","53","Bénin","511","Population totale","3010","Population-Estimations","2009","2009","1000 personnes","8944.708","X","Sources internationales sûres",""
"OA","Séries temporelles annuelles","17","Bermudes","511","Population totale","3010","Population-Estimations","2009","2009","1000 personnes","65.674","X","Sources internationales sûres",""
"OA","Séries temporelles annuelles","18","Bhoutan","511","Population totale","3010","Population-Estimations","2009","2009","1000 personnes","678.323","X","Sources internationales sûres",""
"OA","Séries temporelles annuelles","19","Bolivie (État plurinational de)","511","Population totale","3010","Population-Estimations","2009","2009","1000 personnes","9884.781","X","Sources internationales sûres",""
"OA","Séries temporelles annuelles","80","Bosnie-Herzégovine","511","Population totale","3010","Population-Estimations","2009","2009","1000 personnes","3735.938","X","Sources internationales sûres",""
"OA","Séries temporelles annuelles","20","Botswana","511","Population totale","3010","Population-Estimations","2009","2009","1000 personnes","1953.498","X","Sources internationales sûres",""
"OA","Séries temporelles annuelles","21","Brésil","511","Population totale","3010","Population-Estimations","2009","2009","1000 personnes","193886.508","X","Sources internationales sûres",""
"OA","Séries temporelles annuelles","26","Brunéi Darussalam","511","Population totale","3010","Population-Estimations","2009","2009","1000 personnes","383.906","X","Sources internationales sûres",""
"OA","Séries temporelles annuelles","27","Bulgarie","511","Population totale","3010","Population-Estimations","2009","2009","1000 personnes","7473.513","X","Sources internationales sûres",""
"OA","Séries temporelles annuelles","233","Burkina Faso","511","Population totale","3010","Population-Estimations","2009","2009","1000 personnes","15141.098","X","Sources internationales sûres",""
"OA","Séries temporelles annuelles","29","Burundi","511","Population totale","3010","Population-Estimations","2009","2009","1000 personnes","8397.668","X","Sources internationales sûres",""
"OA","Séries temporelles annuelles","35","Cabo Verde","511","Population totale","3010","Population-Estimations","2009","2009","1000 personnes","486.671","X","Sources internationales sûres",""
"OA","Séries temporelles annuelles","115","Cambodge","511","Population totale","3010","Population-Estimations","2009","2009","1000 personnes","14093.604","X","Sources internationales sûres",""
"OA","Séries temporelles annuelles","32","Cameroun","511","Population totale","3010","Population-Estimations","2009","2009","1000 personnes","19789.919","X","Sources internationales sûres",""
"OA","Séries temporelles annuelles","33","Canada","511","Population totale","3010","Population-Estimations","2009","2009","1000 personnes","33746.093","X","Sources internationales sûres",""
"OA","Séries temporelles annuelles","40","Chili","511","Population totale","3010","Population-Estimations","2009","2009","1000 personnes","16886.186","X","Sources internationales sûres",""
"OA","Séries temporelles annuelles","96","Chine - RAS de Hong-Kong","511","Population totale","3010","Population-Estimations","2009","2009","1000 personnes","6924.642","X","Sources internationales sûres",""
"OA","Séries temporelles annuelles","128","Chine - RAS de Macao","511","Population totale","3010","Population-Estimations","2009","2009","1000 personnes","526.4","X","Sources internationales sûres",""
"OA","Séries temporelles annuelles","41","Chine, continentale","511","Population totale","3010","Population-Estimations","2009","2009","1000 personnes","1361169.419","X","Sources internationales sûres",""
"OA","Séries temporelles annuelles","214","Chine, Taiwan Province de","511","Population totale","3010","Population-Estimations","2009","2009","1000 personnes","23104.546","X","Sources internationales sûres",""
"OA","Séries temporelles annuelles","50","Chypre","511","Population totale","3010","Population-Estimations","2009","2009","1000 personnes","1098.083","X","Sources internationales sûres",""
"OA","Séries temporelles annuelles","44","Colombie","511","Population totale","3010","Population-Estimations","2009","2009","1000 personnes","44750.054","X","Sources internationales sûres",""
"OA","Séries temporelles annuelles","45","Comores","511","Population totale","3010","Population-Estimations","2009","2009","1000 personnes","673.252","X","Sources internationales sûres","UNDESA, Population Division – World Population Prospects, the 2017 Revision"
"OA","Séries temporelles annuelles","46","Congo","511","Population totale","3010","Population-Estimations","2009","2009","1000 personnes","4145.391","X","Sources internationales sûres",""
"OA","Séries temporelles annuelles","48","Costa Rica","511","Population totale","3010","Population-Estimations","2009","2009","1000 personnes","4520.74","X","Sources internationales sûres",""
"OA","Séries temporelles annuelles","107","Côte d'Ivoire","511","Population totale","3010","Population-Estimations","2009","2009","1000 personnes","20059.147","X","Sources internationales sûres",""
"OA","Séries temporelles annuelles","98","Croatie","511","Population totale","3010","Population-Estimations","2009","2009","1000 personnes","4341.264","X","Sources internationales sûres",""
"OA","Séries temporelles annuelles","49","Cuba","511","Population totale","3010","Population-Estimations","2009","2009","1000 personnes","11226.709","X","Sources internationales sûres",""
"OA","Séries temporelles annuelles","54","Danemark","511","Population totale","3010","Population-Estimations","2009","2009","1000 personnes","5526.388","X","Sources internationales sûres",""
"OA","Séries temporelles annuelles","72","Djibouti","511","Population totale","3010","Population-Estimations","2009","2009","1000 personnes","827.823","X","Sources internationales sûres",""
"OA","Séries temporelles annuelles","55","Dominique","511","Population totale","3010","Population-Estimations","2009","2009","1000 personnes","70.851","X","Sources internationales sûres",""
"OA","Séries temporelles annuelles","59","Égypte","511","Population totale","3010","Population-Estimations","2009","2009","1000 personnes","81134.798","X","Sources internationales sûres",""
"OA","Séries temporelles annuelles","60","El Salvador","511","Population totale","3010","Population-Estimations","2009","2009","1000 personnes","6157.686","X","Sources internationales sûres",""
"OA","Séries temporelles annuelles","225","Émirats arabes unis","511","Population totale","3010","Population-Estimations","2009","2009","1000 personnes","7917.372","X","Sources internationales sûres",""
"OA","Séries temporelles annuelles","58","Équateur","511","Population totale","3010","Population-Estimations","2009","2009","1000 personnes","14774.424","X","Sources internationales sûres",""
"OA","Séries temporelles annuelles","178","Érythrée","511","Population totale","3010","Population-Estimations","2009","2009","1000 personnes","3119.92","X","Sources internationales sûres",""
"OA","Séries temporelles annuelles","203","Espagne","511","Population totale","3010","Population-Estimations","2009","2009","1000 personnes","46583.565","X","Sources internationales sûres",""
"OA","Séries temporelles annuelles","63","Estonie","511","Population totale","3010","Population-Estimations","2009","2009","1000 personnes","1336.135","X","Sources internationales sûres",""
"OA","Séries temporelles annuelles","209","Eswatini","511","Population totale","3010","Population-Estimations","2009","2009","1000 personnes","1057.467","X","Sources internationales sûres",""
"OA","Séries temporelles annuelles","231","États-Unis d'Amérique","511","Population totale","3010","Population-Estimations","2009","2009","1000 personnes","306307.567","X","Sources internationales sûres",""
"OA","Séries temporelles annuelles","238","Éthiopie","511","Population totale","3010","Population-Estimations","2009","2009","1000 personnes","85233.913","X","Sources internationales sûres",""
"OA","Séries temporelles annuelles","185","Fédération de Russie","511","Population totale","3010","Population-Estimations","2009","2009","1000 personnes","143326.913","X","Sources internationales sûres",""
"OA","Séries temporelles annuelles","66","Fidji","511","Population totale","3010","Population-Estimations","2009","2009","1000 personnes","853.637","X","Sources internationales sûres",""
"OA","Séries temporelles annuelles","67","Finlande","511","Population totale","3010","Population-Estimations","2009","2009","1000 personnes","5342.262","X","Sources internationales sûres",""
"OA","Séries temporelles annuelles","68","France","511","Population totale","3010","Population-Estimations","2009","2009","1000 personnes","62542.9","X","Sources internationales sûres",""
"OA","Séries temporelles annuelles","74","Gabon","511","Population totale","3010","Population-Estimations","2009","2009","1000 personnes","1568.928","X","Sources internationales sûres",""
"OA","Séries temporelles annuelles","75","Gambie","511","Population totale","3010","Population-Estimations","2009","2009","1000 personnes","1740.279","X","Sources internationales sûres",""
"OA","Séries temporelles annuelles","73","Géorgie","511","Population totale","3010","Population-Estimations","2009","2009","1000 personnes","4119.494","X","Sources internationales sûres",""
"OA","Séries temporelles annuelles","81","Ghana","511","Population totale","3010","Population-Estimations","2009","2009","1000 personnes","24170.94","X","Sources internationales sûres",""
"OA","Séries temporelles annuelles","82","Gibraltar","511","Population totale","3010","Population-Estimations","2009","2009","1000 personnes","33.565","X","Sources internationales sûres",""
"OA","Séries temporelles annuelles","84","Grèce","511","Population totale","3010","Population-Estimations","2009","2009","1000 personnes","10959.272","X","Sources internationales sûres",""
"OA","Séries temporelles annuelles","86","Grenade","511","Population totale","3010","Population-Estimations","2009","2009","1000 personnes","105.789","X","Sources internationales sûres",""
"OA","Séries temporelles annuelles","85","Groenland","511","Population totale","3010","Population-Estimations","2009","2009","1000 personnes","56.728","X","Sources internationales sûres","UNDESA, Population Division – World Population Prospects, the 2017 Revision"
"OA","Séries temporelles annuelles","87","Guadeloupe","511","Population totale","3010","Population-Estimations","2009","2009","1000 personnes","405.448","X","Sources internationales sûres",""
"OA","Séries temporelles annuelles","88","Guam","511","Population totale","3010","Population-Estimations","2009","2009","1000 personnes","159.226","X","Sources internationales sûres",""
"OA","Séries temporelles annuelles","89","Guatemala","511","Population totale","3010","Population-Estimations","2009","2009","1000 personnes","14316.263","X","Sources internationales sûres",""
"OA","Séries temporelles annuelles","90","Guinée","511","Population totale","3010","Population-Estimations","2009","2009","1000 personnes","9964.469","X","Sources internationales sûres",""
"OA","Séries temporelles annuelles","61","Guinée équatoriale","511","Population totale","3010","Population-Estimations","2009","2009","1000 personnes","901.599","X","Sources internationales sûres",""
"OA","Séries temporelles annuelles","175","Guinée-Bissau","511","Population totale","3010","Population-Estimations","2009","2009","1000 personnes","1483.921","X","Sources internationales sûres",""
"OA","Séries temporelles annuelles","91","Guyana","511","Population totale","3010","Population-Estimations","2009","2009","1000 personnes","747.718","X","Sources internationales sûres",""
"OA","Séries temporelles annuelles","69","Guyane française","511","Population totale","3010","Population-Estimations","2009","2009","1000 personnes","227.54","X","Sources internationales sûres",""
"OA","Séries temporelles annuelles","93","Haïti","511","Population totale","3010","Population-Estimations","2009","2009","1000 personnes","9798.046","X","Sources internationales sûres",""
"OA","Séries temporelles annuelles","95","Honduras","511","Population totale","3010","Population-Estimations","2009","2009","1000 personnes","8150.775","X","Sources internationales sûres",""
"OA","Séries temporelles annuelles","97","Hongrie","511","Population totale","3010","Population-Estimations","2009","2009","1000 personnes","9959.439","X","Sources internationales sûres",""
"OA","Séries temporelles annuelles","264","Île de Man","511","Population totale","3010","Population-Estimations","2009","2009","1000 personnes","84.376","X","Sources internationales sûres",""
"OA","Séries temporelles annuelles","259","Îles Anglo-Normandes","511","Population totale","3010","Population-Estimations","2009","2009","1000 personnes","158.178","X","Sources internationales sûres",""
"OA","Séries temporelles annuelles","36","Îles Caïmanes","511","Population totale","3010","Population-Estimations","2009","2009","1000 personnes","55.322","X","Sources internationales sûres",""
"OA","Séries temporelles annuelles","47","Îles Cook","511","Population totale","3010","Population-Estimations","2009","2009","1000 personnes","18.602","X","Sources internationales sûres",""
"OA","Séries temporelles annuelles","65","Îles Falkland (Malvinas)","511","Population totale","3010","Population-Estimations","2009","2009","1000 personnes","2.917","X","Sources internationales sûres",""
"OA","Séries temporelles annuelles","64","Îles Féroé","511","Population totale","3010","Population-Estimations","2009","2009","1000 personnes","47.808","X","Sources internationales sûres",""
"OA","Séries temporelles annuelles","163","Îles Mariannes du Nord","511","Population totale","3010","Population-Estimations","2009","2009","1000 personnes","54.193","X","Sources internationales sûres",""
"OA","Séries temporelles annuelles","127","Îles Marshall","511","Population totale","3010","Population-Estimations","2009","2009","1000 personnes","56.25","X","Sources internationales sûres",""
"OA","Séries temporelles annuelles","25","Îles Salomon","511","Population totale","3010","Population-Estimations","2009","2009","1000 personnes","515.181","X","Sources internationales sûres",""
"OA","Séries temporelles annuelles","224","Îles Turques-et-Caïques","511","Population totale","3010","Population-Estimations","2009","2009","1000 personnes","31.934","X","Sources internationales sûres",""
"OA","Séries temporelles annuelles","240","Îles Vierges américaines","511","Population totale","3010","Population-Estimations","2009","2009","1000 personnes","106.412","X","Sources internationales sûres",""
"OA","Séries temporelles annuelles","239","Îles Vierges britanniques","511","Population totale","3010","Population-Estimations","2009","2009","1000 personnes","27.039","X","Sources internationales sûres",""
"OA","Séries temporelles annuelles","243","Îles Wallis-et-Futuna","511","Population totale","3010","Population-Estimations","2009","2009","1000 personnes","13.07","X","Sources internationales sûres",""
"OA","Séries temporelles annuelles","100","Inde","511","Population totale","3010","Population-Estimations","2009","2009","1000 personnes","1217726.215","X","Sources internationales sûres",""
"OA","Séries temporelles annuelles","101","Indonésie","511","Population totale","3010","Population-Estimations","2009","2009","1000 personnes","238620.563","X","Sources internationales sûres",""
"OA","Séries temporelles annuelles","102","Iran (République islamique d')","511","Population totale","3010","Population-Estimations","2009","2009","1000 personnes","72924.837","X","Sources internationales sûres",""
"OA","Séries temporelles annuelles","103","Iraq","511","Population totale","3010","Population-Estimations","2009","2009","1000 personnes","28973.162","X","Sources internationales sûres",""
"OA","Séries temporelles annuelles","104","Irlande","511","Population totale","3010","Population-Estimations","2009","2009","1000 personnes","4494.576","X","Sources internationales sûres",""
"OA","Séries temporelles annuelles","99","Islande","511","Population totale","3010","Population-Estimations","2009","2009","1000 personnes","316.062","X","Sources internationales sûres",""
"OA","Séries temporelles annuelles","105","Israël","511","Population totale","3010","Population-Estimations","2009","2009","1000 personnes","7190.034","X","Sources internationales sûres",""
"OA","Séries temporelles annuelles","106","Italie","511","Population totale","3010","Population-Estimations","2009","2009","1000 personnes","59105.625","X","Sources internationales sûres",""
"OA","Séries temporelles annuelles","109","Jamaïque","511","Population totale","3010","Population-Estimations","2009","2009","1000 personnes","2795.837","X","Sources internationales sûres",""
"OA","Séries temporelles annuelles","110","Japon","511","Population totale","3010","Population-Estimations","2009","2009","1000 personnes","128555.189","X","Sources internationales sûres",""
"OA","Séries temporelles annuelles","112","Jordanie","511","Population totale","3010","Population-Estimations","2009","2009","1000 personnes","6893.26","X","Sources internationales sûres",""
"OA","Séries temporelles annuelles","108","Kazakhstan","511","Population totale","3010","Population-Estimations","2009","2009","1000 personnes","16043.007","X","Sources internationales sûres",""
"OA","Séries temporelles annuelles","114","Kenya","511","Population totale","3010","Population-Estimations","2009","2009","1000 personnes","40901.792","X","Sources internationales sûres",""
"OA","Séries temporelles annuelles","113","Kirghizistan","511","Population totale","3010","Population-Estimations","2009","2009","1000 personnes","5334.71","X","Sources internationales sûres",""
"OA","Séries temporelles annuelles","83","Kiribati","511","Population totale","3010","Population-Estimations","2009","2009","1000 personnes","100.93","X","Sources internationales sûres",""
"OA","Séries temporelles annuelles","118","Koweït","511","Population totale","3010","Population-Estimations","2009","2009","1000 personnes","2821.045","X","Sources internationales sûres",""
"OA","Séries temporelles annuelles","122","Lesotho","511","Population totale","3010","Population-Estimations","2009","2009","1000 personnes","1990.131","X","Sources internationales sûres",""
"OA","Séries temporelles annuelles","119","Lettonie","511","Population totale","3010","Population-Estimations","2009","2009","1000 personnes","2144.785","X","Sources internationales sûres",""
"OA","Séries temporelles annuelles","121","Liban","511","Population totale","3010","Population-Estimations","2009","2009","1000 personnes","4813.026","X","Sources internationales sûres",""
"OA","Séries temporelles annuelles","123","Libéria","511","Population totale","3010","Population-Estimations","2009","2009","1000 personnes","3754.133","X","Sources internationales sûres",""
"OA","Séries temporelles annuelles","124","Libye","511","Population totale","3010","Population-Estimations","2009","2009","1000 personnes","6133.984","X","Sources internationales sûres",""
"OA","Séries temporelles annuelles","125","Liechtenstein","511","Population totale","3010","Population-Estimations","2009","2009","1000 personnes","35.727","X","Sources internationales sûres",""
"OA","Séries temporelles annuelles","126","Lituanie","511","Population totale","3010","Population-Estimations","2009","2009","1000 personnes","3167.265","X","Sources internationales sûres",""
"OA","Séries temporelles annuelles","256","Luxembourg","511","Population totale","3010","Population-Estimations","2009","2009","1000 personnes","496.527","X","Sources internationales sûres",""
"OA","Séries temporelles annuelles","154","Macédoine du Nord","511","Population totale","3010","Population-Estimations","2009","2009","1000 personnes","2069.039","X","Sources internationales sûres",""
"OA","Séries temporelles annuelles","129","Madagascar","511","Population totale","3010","Population-Estimations","2009","2009","1000 personnes","20569.117","X","Sources internationales sûres",""
"OA","Séries temporelles annuelles","131","Malaisie","511","Population totale","3010","Population-Estimations","2009","2009","1000 personnes","27735.04","X","Sources internationales sûres",""
"OA","Séries temporelles annuelles","130","Malawi","511","Population totale","3010","Population-Estimations","2009","2009","1000 personnes","14128.155","X","Sources internationales sûres",""
"OA","Séries temporelles annuelles","132","Maldives","511","Population totale","3010","Population-Estimations","2009","2009","1000 personnes","353.398","X","Sources internationales sûres",""
"OA","Séries temporelles annuelles","133","Mali","511","Population totale","3010","Population-Estimations","2009","2009","1000 personnes","14581.429","X","Sources internationales sûres",""
"OA","Séries temporelles annuelles","134","Malte","511","Population totale","3010","Population-Estimations","2009","2009","1000 personnes","411.552","X","Sources internationales sûres",""
"OA","Séries temporelles annuelles","143","Maroc","511","Population totale","3010","Population-Estimations","2009","2009","1000 personnes","31929.087","X","Sources internationales sûres",""
"OA","Séries temporelles annuelles","135","Martinique","511","Population totale","3010","Population-Estimations","2009","2009","1000 personnes","396.565","X","Sources internationales sûres",""
"OA","Séries temporelles annuelles","137","Maurice","511","Population totale","3010","Population-Estimations","2009","2009","1000 personnes","1243.991","X","Sources internationales sûres",""
"OA","Séries temporelles annuelles","136","Mauritanie","511","Population totale","3010","Population-Estimations","2009","2009","1000 personnes","3393.409","X","Sources internationales sûres",""
"OA","Séries temporelles annuelles","270","Mayotte","511","Population totale","3010","Population-Estimations","2009","2009","1000 personnes","202.499","X","Sources internationales sûres",""
"OA","Séries temporelles annuelles","138","Mexique","511","Population totale","3010","Population-Estimations","2009","2009","1000 personnes","112463.887","X","Sources internationales sûres",""
"OA","Séries temporelles annuelles","145","Micronésie (États fédérés de)","511","Population totale","3010","Population-Estimations","2009","2009","1000 personnes","102.975","X","Sources internationales sûres",""
"OA","Séries temporelles annuelles","140","Monaco","511","Population totale","3010","Population-Estimations","2009","2009","1000 personnes","35.226","X","Sources internationales sûres",""
"OA","Séries temporelles annuelles","141","Mongolie","511","Population totale","3010","Population-Estimations","2009","2009","1000 personnes","2673.796","X","Sources internationales sûres",""
"OA","Séries temporelles annuelles","273","Monténégro","511","Population totale","3010","Population-Estimations","2009","2009","1000 personnes","622.939","X","Sources internationales sûres",""
"OA","Séries temporelles annuelles","142","Montserrat","511","Population totale","3010","Population-Estimations","2009","2009","1000 personnes","4.891","X","Sources internationales sûres",""
"OA","Séries temporelles annuelles","144","Mozambique","511","Population totale","3010","Population-Estimations","2009","2009","1000 personnes","22894.71","X","Sources internationales sûres",""
"OA","Séries temporelles annuelles","28","Myanmar","511","Population totale","3010","Population-Estimations","2009","2009","1000 personnes","50250.367","X","Sources internationales sûres",""
"OA","Séries temporelles annuelles","147","Namibie","511","Population totale","3010","Population-Estimations","2009","2009","1000 personnes","2081.044","X","Sources internationales sûres",""
"OA","Séries temporelles annuelles","148","Nauru","511","Population totale","3010","Population-Estimations","2009","2009","1000 personnes","9.939","X","Sources internationales sûres",""
"OA","Séries temporelles annuelles","149","Népal","511","Population totale","3010","Population-Estimations","2009","2009","1000 personnes","26883.535","X","Sources internationales sûres",""
"OA","Séries temporelles annuelles","157","Nicaragua","511","Population totale","3010","Population-Estimations","2009","2009","1000 personnes","5745.526","X","Sources internationales sûres",""
"OA","Séries temporelles annuelles","158","Niger","511","Population totale","3010","Population-Estimations","2009","2009","1000 personnes","15843.133","X","Sources internationales sûres",""
"OA","Séries temporelles annuelles","159","Nigéria","511","Population totale","3010","Population-Estimations","2009","2009","1000 personnes","154324.933","X","Sources internationales sûres",""
"OA","Séries temporelles annuelles","160","Nioué","511","Population totale","3010","Population-Estimations","2009","2009","1000 personnes","1.628","X","Sources internationales sûres",""
"OA","Séries temporelles annuelles","162","Norvège","511","Population totale","3010","Population-Estimations","2009","2009","1000 personnes","4826.848","X","Sources internationales sûres",""
"OA","Séries temporelles annuelles","153","Nouvelle-Calédonie","511","Population totale","3010","Population-Estimations","2009","2009","1000 personnes","250.085","X","Sources internationales sûres",""
"OA","Séries temporelles annuelles","156","Nouvelle-Zélande","511","Population totale","3010","Population-Estimations","2009","2009","1000 personnes","4323.337","X","Sources internationales sûres",""
"OA","Séries temporelles annuelles","221","Oman","511","Population totale","3010","Population-Estimations","2009","2009","1000 personnes","2876.186","X","Sources internationales sûres",""
"OA","Séries temporelles annuelles","226","Ouganda","511","Population totale","3010","Population-Estimations","2009","2009","1000 personnes","31411.096","X","Sources internationales sûres",""
"OA","Séries temporelles annuelles","235","Ouzbékistan","511","Population totale","3010","Population-Estimations","2009","2009","1000 personnes","28065.466","X","Sources internationales sûres",""
"OA","Séries temporelles annuelles","165","Pakistan","511","Population totale","3010","Population-Estimations","2009","2009","1000 personnes","175525.609","X","Sources internationales sûres",""
"OA","Séries temporelles annuelles","180","Palaos","511","Population totale","3010","Population-Estimations","2009","2009","1000 personnes","18.285","X","Sources internationales sûres",""
"OA","Séries temporelles annuelles","299","Palestine","511","Population totale","3010","Population-Estimations","2009","2009","1000 personnes","3957.67","X","Sources internationales sûres",""
"OA","Séries temporelles annuelles","166","Panama","511","Population totale","3010","Population-Estimations","2009","2009","1000 personnes","3579.215","X","Sources internationales sûres",""
"OA","Séries temporelles annuelles","168","Papouasie-Nouvelle-Guinée","511","Population totale","3010","Population-Estimations","2009","2009","1000 personnes","7144.776","X","Sources internationales sûres",""
"OA","Séries temporelles annuelles","169","Paraguay","511","Population totale","3010","Population-Estimations","2009","2009","1000 personnes","6163.972","X","Sources internationales sûres",""
"OA","Séries temporelles annuelles","150","Pays-Bas","511","Population totale","3010","Population-Estimations","2009","2009","1000 personnes","16626.373","X","Sources internationales sûres",""
"OA","Séries temporelles annuelles","170","Pérou","511","Population totale","3010","Population-Estimations","2009","2009","1000 personnes","28792.655","X","Sources internationales sûres",""
"OA","Séries temporelles annuelles","171","Philippines","511","Population totale","3010","Population-Estimations","2009","2009","1000 personnes","92414.158","X","Sources internationales sûres",""
"OA","Séries temporelles annuelles","173","Pologne","511","Population totale","3010","Population-Estimations","2009","2009","1000 personnes","38351.916","X","Sources internationales sûres",""
"OA","Séries temporelles annuelles","70","Polynésie française","511","Population totale","3010","Population-Estimations","2009","2009","1000 personnes","265.254","X","Sources internationales sûres",""
"OA","Séries temporelles annuelles","177","Porto Rico","511","Population totale","3010","Population-Estimations","2009","2009","1000 personnes","3596.54","X","Sources internationales sûres",""
"OA","Séries temporelles annuelles","174","Portugal","511","Population totale","3010","Population-Estimations","2009","2009","1000 personnes","10604.056","X","Sources internationales sûres",""
"OA","Séries temporelles annuelles","179","Qatar","511","Population totale","3010","Population-Estimations","2009","2009","1000 personnes","1654.95","X","Sources internationales sûres",""
"OA","Séries temporelles annuelles","212","République arabe syrienne","511","Population totale","3010","Population-Estimations","2009","2009","1000 personnes","21205.873","X","Sources internationales sûres",""
"OA","Séries temporelles annuelles","37","République centrafricaine","511","Population totale","3010","Population-Estimations","2009","2009","1000 personnes","4337.625","X","Sources internationales sûres",""
"OA","Séries temporelles annuelles","117","République de Corée","511","Population totale","3010","Population-Estimations","2009","2009","1000 personnes","49347.461","X","Sources internationales sûres",""
"OA","Séries temporelles annuelles","146","République de Moldova","511","Population totale","3010","Population-Estimations","2009","2009","1000 personnes","4097.518","X","Sources internationales sûres",""
"OA","Séries temporelles annuelles","250","République démocratique du Congo","511","Population totale","3010","Population-Estimations","2009","2009","1000 personnes","62448.574","X","Sources internationales sûres",""
"OA","Séries temporelles annuelles","120","République démocratique populaire lao","511","Population totale","3010","Population-Estimations","2009","2009","1000 personnes","6148.623","X","Sources internationales sûres",""
"OA","Séries temporelles annuelles","56","République dominicaine","511","Population totale","3010","Population-Estimations","2009","2009","1000 personnes","9576.737","X","Sources internationales sûres",""
"OA","Séries temporelles annuelles","116","République populaire démocratique de Corée","511","Population totale","3010","Population-Estimations","2009","2009","1000 personnes","24428.341","X","Sources internationales sûres",""
"OA","Séries temporelles annuelles","215","République-Unie de Tanzanie","511","Population totale","3010","Population-Estimations","2009","2009","1000 personnes","43073.834","X","Sources internationales sûres",""
"OA","Séries temporelles annuelles","182","Réunion","511","Population totale","3010","Population-Estimations","2009","2009","1000 personnes","823.522","X","Sources internationales sûres",""
"OA","Séries temporelles annuelles","183","Roumanie","511","Population totale","3010","Population-Estimations","2009","2009","1000 personnes","20637.991","X","Sources internationales sûres",""
"OA","Séries temporelles annuelles","229","Royaume-Uni de Grande-Bretagne et d'Irlande du Nord","511","Population totale","3010","Population-Estimations","2009","2009","1000 personnes","62828.616","X","Sources internationales sûres",""
"OA","Séries temporelles annuelles","184","Rwanda","511","Population totale","3010","Population-Estimations","2009","2009","1000 personnes","9782.77","X","Sources internationales sûres",""
"OA","Séries temporelles annuelles","205","Sahara occidental","511","Population totale","3010","Population-Estimations","2009","2009","1000 personnes","474.044","X","Sources internationales sûres","UNDESA, Population Division – World Population Prospects, the 2017 Revision"
"OA","Séries temporelles annuelles","187","Sainte-Hélène, Ascension et Tristan da Cunha","511","Population totale","3010","Population-Estimations","2009","2009","1000 personnes","5.142","X","Sources internationales sûres",""
"OA","Séries temporelles annuelles","189","Sainte-Lucie","511","Population totale","3010","Population-Estimations","2009","2009","1000 personnes","172.221","X","Sources internationales sûres",""
"OA","Séries temporelles annuelles","188","Saint-Kitts-et-Nevis","511","Population totale","3010","Population-Estimations","2009","2009","1000 personnes","48.599","X","Sources internationales sûres",""
"OA","Séries temporelles annuelles","192","Saint-Marin","511","Population totale","3010","Population-Estimations","2009","2009","1000 personnes","30.816","X","Sources internationales sûres",""
"OA","Séries temporelles annuelles","190","Saint-Pierre-et-Miquelon","511","Population totale","3010","Population-Estimations","2009","2009","1000 personnes","6.34","X","Sources internationales sûres",""
"OA","Séries temporelles annuelles","94","Saint-Siège","511","Population totale","3010","Population-Estimations","2009","2009","1000 personnes","0.795","X","Sources internationales sûres","UNDESA, Population Division – World Population Prospects, the 2017 Revision"
"OA","Séries temporelles annuelles","191","Saint-Vincent-et-les Grenadines","511","Population totale","3010","Population-Estimations","2009","2009","1000 personnes","108.287","X","Sources internationales sûres",""
"OA","Séries temporelles annuelles","244","Samoa","511","Population totale","3010","Population-Estimations","2009","2009","1000 personnes","184.556","X","Sources internationales sûres",""
"OA","Séries temporelles annuelles","5","Samoa américaines","511","Population totale","3010","Population-Estimations","2009","2009","1000 personnes","56.683","X","Sources internationales sûres",""
"OA","Séries temporelles annuelles","193","Sao Tomé-et-Principe","511","Population totale","3010","Population-Estimations","2009","2009","1000 personnes","175.876","X","Sources internationales sûres",""
"OA","Séries temporelles annuelles","195","Sénégal","511","Population totale","3010","Population-Estimations","2009","2009","1000 personnes","12335.084","X","Sources internationales sûres",""
"OA","Séries temporelles annuelles","272","Serbie","511","Population totale","3010","Population-Estimations","2009","2009","1000 personnes","9023.357","X","Sources internationales sûres",""
"OA","Séries temporelles annuelles","196","Seychelles","511","Population totale","3010","Population-Estimations","2009","2009","1000 personnes","90.802","X","Sources internationales sûres",""
"OA","Séries temporelles annuelles","197","Sierra Leone","511","Population totale","3010","Population-Estimations","2009","2009","1000 personnes","6272.734","X","Sources internationales sûres",""
"OA","Séries temporelles annuelles","200","Singapour","511","Population totale","3010","Population-Estimations","2009","2009","1000 personnes","4966.614","X","Sources internationales sûres",""
"OA","Séries temporelles annuelles","199","Slovaquie","511","Population totale","3010","Population-Estimations","2009","2009","1000 personnes","5401.153","X","Sources internationales sûres",""
"OA","Séries temporelles annuelles","198","Slovénie","511","Population totale","3010","Population-Estimations","2009","2009","1000 personnes","2033.804","X","Sources internationales sûres",""
"OA","Séries temporelles annuelles","201","Somalie","511","Population totale","3010","Population-Estimations","2009","2009","1000 personnes","11717.692","X","Sources internationales sûres",""
"OA","Séries temporelles annuelles","206","Soudan (ex)","511","Population totale","3010","Population-Estimations","2009","2009","1000 personnes","42926.047","A","Agrégat, peut inclure des données officielles, semi-officielles, estimées ou calculées",""
"OA","Séries temporelles annuelles","38","Sri Lanka","511","Population totale","3010","Population-Estimations","2009","2009","1000 personnes","20123.508","X","Sources internationales sûres",""
"OA","Séries temporelles annuelles","210","Suède","511","Population totale","3010","Population-Estimations","2009","2009","1000 personnes","9313.087","X","Sources internationales sûres",""
"OA","Séries temporelles annuelles","211","Suisse","511","Population totale","3010","Population-Estimations","2009","2009","1000 personnes","7713.898","X","Sources internationales sûres",""
"OA","Séries temporelles annuelles","207","Suriname","511","Population totale","3010","Population-Estimations","2009","2009","1000 personnes","523.111","X","Sources internationales sûres",""
"OA","Séries temporelles annuelles","208","Tadjikistan","511","Population totale","3010","Population-Estimations","2009","2009","1000 personnes","7364.753","X","Sources internationales sûres",""
"OA","Séries temporelles annuelles","39","Tchad","511","Population totale","3010","Population-Estimations","2009","2009","1000 personnes","11560.147","X","Sources internationales sûres",""
"OA","Séries temporelles annuelles","167","Tchéquie","511","Population totale","3010","Population-Estimations","2009","2009","1000 personnes","10488.155","X","Sources internationales sûres",""
"OA","Séries temporelles annuelles","216","Thaïlande","511","Population totale","3010","Population-Estimations","2009","2009","1000 personnes","66866.839","X","Sources internationales sûres",""
"OA","Séries temporelles annuelles","176","Timor-Leste","511","Population totale","3010","Population-Estimations","2009","2009","1000 personnes","1074.277","X","Sources internationales sûres",""
"OA","Séries temporelles annuelles","217","Togo","511","Population totale","3010","Population-Estimations","2009","2009","1000 personnes","6250.835","X","Sources internationales sûres",""
"OA","Séries temporelles annuelles","218","Tokélaou","511","Population totale","3010","Population-Estimations","2009","2009","1000 personnes","1.126","X","Sources internationales sûres","UNDESA, Population Division – World Population Prospects, the 2017 Revision"
"OA","Séries temporelles annuelles","219","Tonga","511","Population totale","3010","Population-Estimations","2009","2009","1000 personnes","103.89","X","Sources internationales sûres",""
"OA","Séries temporelles annuelles","220","Trinité-et-Tobago","511","Population totale","3010","Population-Estimations","2009","2009","1000 personnes","1320.93","X","Sources internationales sûres",""
"OA","Séries temporelles annuelles","222","Tunisie","511","Population totale","3010","Population-Estimations","2009","2009","1000 personnes","10525.694","X","Sources internationales sûres",""
"OA","Séries temporelles annuelles","213","Turkménistan","511","Population totale","3010","Population-Estimations","2009","2009","1000 personnes","5007.954","X","Sources internationales sûres",""
"OA","Séries temporelles annuelles","223","Turquie","511","Population totale","3010","Population-Estimations","2009","2009","1000 personnes","71321.399","X","Sources internationales sûres",""
"OA","Séries temporelles annuelles","227","Tuvalu","511","Population totale","3010","Population-Estimations","2009","2009","1000 personnes","10.424","X","Sources internationales sûres",""
"OA","Séries temporelles annuelles","230","Ukraine","511","Population totale","3010","Population-Estimations","2009","2009","1000 personnes","45970.941","X","Sources internationales sûres",""
"OA","Séries temporelles annuelles","234","Uruguay","511","Population totale","3010","Population-Estimations","2009","2009","1000 personnes","3349.676","X","Sources internationales sûres",""
"OA","Séries temporelles annuelles","155","Vanuatu","511","Population totale","3010","Population-Estimations","2009","2009","1000 personnes","230.247","X","Sources internationales sûres",""
"OA","Séries temporelles annuelles","236","Venezuela (République bolivarienne du)","511","Population totale","3010","Population-Estimations","2009","2009","1000 personnes","28031.009","X","Sources internationales sûres",""
"OA","Séries temporelles annuelles","237","Viet Nam","511","Population totale","3010","Population-Estimations","2009","2009","1000 personnes","87092.252","X","Sources internationales sûres",""
"OA","Séries temporelles annuelles","249","Yémen","511","Population totale","3010","Population-Estimations","2009","2009","1000 personnes","22516.46","X","Sources internationales sûres",""
"OA","Séries temporelles annuelles","251","Zambie","511","Population totale","3010","Population-Estimations","2009","2009","1000 personnes","13215.139","X","Sources internationales sûres",""
"OA","Séries temporelles annuelles","181","Zimbabwe","511","Population totale","3010","Population-Estimations","2009","2009","1000 personnes","12526.968","X","Sources internationales sûres",""
